…
- plot:

  Boolean. Create a plot?

## Value

List with data.frame and plot if `plot=TRUE`.

## Examples

``` r
# \donttest{
cran_logs(c("lares", "dplyr"), from = "2021-05-31")
#> $df
#> # A tibble: 3,244 × 3
#>    date       count package
#>    <date>     <int> <chr>  
#>  1 2025-11-14   244 lares  
#>  2 2025-11-14 67645 dplyr  
#>  3 2025-11-13   321 lares  
#>  4 2025-11-13 77061 dplyr  
#>  5 2025-11-12   325 lares  
#>  6 2025-11-12 87576 dplyr  
#>  7 2025-11-11   358 lares  
#>  8 2025-11-11 81530 dplyr  
#>  9 2025-11-10   328 lares  
#> 10 2025-11-10 74422 dplyr  
#> # ℹ 3,234 more rows
…
