Frequencies on Lists and Plot — freqs_list • lares
…
lapply(x, head)
#> $plot
#> $plot$data
#> # A tibble: 46 x 6
#> # Groups:   var [11]
#>    var       value    id order label .group
#>    <fct>     <lgl> <int> <int> <chr>  <int>
#>  1 var_fair  TRUE      1     1 #1        11
#>  2 var_fair  TRUE     19    19 ...       11
#>  3 var_light TRUE      2     2 #2         9
#>  4 var_dark  TRUE      3     3 #3         4
#>  5 var_green TRUE      4     4 #4         8
#>  6 var_green TRUE     19    19 ...        8
#>  7 var_green TRUE     20    20 ...        8
#>  8 var_green TRUE     21    21 ...        8
#>  9 var_grey  TRUE      5     5 #5        10
#> 10 var_grey  TRUE      9     9 #9        10
#> # … with 36 more rows
…
