Plot for All Frequencies on Dataframe — freqs_df • lares
…
    Examples

# \donttest{
data(dft) # Titanic dataset
freqs_df(dft)
#> Warning: cannot xtfrm data frames
#> 1 variables with more than 0.9 variance exluded: 'PassengerId'
#> # A tibble: 1,191 × 5
#> # Groups:   variable [10]
#>    variable value        n     p  pcum
#>    <chr>    <chr>    <int> <dbl> <dbl>
#>  1 Cabin    ""         687  77.1  77.1
#>  2 Parch    "0"        678  76.1  76.1
#>  3 Embarked "S"        644  72.3  72.3
#>  4 SibSp    "0"        608  68.2  68.2
#>  5 Sex      "male"     577  64.8  64.8
#>  6 Survived "FALSE"    549  61.6  61.6
#>  7 Pclass   "3"        491  55.1  55.1
#>  8 Survived "TRUE"     342  38.4 100  
#>  9 Sex      "female"   314  35.2 100  
#> 10 Pclass   "1"        216  24.2  79.4
#> # … with 1,181 more rows
…
