Holidays in your Country — holidays • lares
…
Other One Hot Encoding: 
date_feats(),
ohse()

    Examples

# \donttest{
holidays(countries = "Argentina") 
#> >>> Extracting Argentina's holidays for 2020
#> # A tibble: 43 x 9
#>    holiday    holiday_name holiday_type national observance bank  nonwork season
#>    <date>     <chr>        <chr>        <lgl>    <lgl>      <lgl> <lgl>   <lgl> 
#>  1 2020-01-01 New Year's … National ho… TRUE     FALSE      FALSE FALSE   FALSE 
#>  2 2020-02-24 Carnival / … National ho… TRUE     FALSE      FALSE FALSE   FALSE 
#>  3 2020-02-25 Carnival / … National ho… TRUE     FALSE      FALSE FALSE   FALSE 
#>  4 2020-03-20 March Equin… Season       FALSE    FALSE      FALSE FALSE   TRUE  
#>  5 2020-03-23 Bridge Publ… National ho… TRUE     FALSE      FALSE FALSE   FALSE 
#>  6 2020-03-24 Memorial Day National ho… TRUE     FALSE      FALSE FALSE   FALSE 
#>  7 2020-03-30 Bridge Publ… National ho… TRUE     FALSE      FALSE FALSE   FALSE 
#>  8 2020-03-31 Holiday for… National ho… TRUE     FALSE      FALSE FALSE   FALSE 
#>  9 2020-04-02 Day of the … Observance   FALSE    TRUE       FALSE FALSE   FALSE 
#> 10 2020-04-08 Passover Eve Observance   FALSE    TRUE       FALSE FALSE   FALSE 
#> # … with 33 more rows, and 1 more variable: hother <lgl>
holidays(countries = c("Argentina", "Venezuela"), years = c(2019, 2020))
#> >>> Extracting Argentina's holidays for 2019
#> >>> Extracting Argentina's holidays for 2020
#> >>> Extracting Venezuela's holidays for 2019
#> >>> Extracting Venezuela's holidays for 2020
#> # A tibble: 158 x 10
#>    holiday    holiday_name holiday_type national observance bank  nonwork season
#>    <date>     <chr>        <chr>        <lgl>    <lgl>      <lgl> <lgl>   <lgl> 
#>  1 2019-01-01 New Year's … National ho… TRUE     FALSE      FALSE FALSE   FALSE 
#>  2 2019-03-04 Carnival / … National ho… TRUE     FALSE      FALSE FALSE   FALSE 
#>  3 2019-03-05 Carnival / … National ho… TRUE     FALSE      FALSE FALSE   FALSE 
#>  4 2019-03-20 March Equin… Season       FALSE    FALSE      FALSE FALSE   TRUE  
#>  5 2019-03-24 Memorial Day National ho… TRUE     FALSE      FALSE FALSE   FALSE 
#>  6 2019-04-02 Day of the … National ho… TRUE     FALSE      FALSE FALSE   FALSE 
#>  7 2019-04-18 Maundy Thur… National ho… TRUE     FALSE      FALSE FALSE   FALSE 
#>  8 2019-04-19 Good Friday  National ho… TRUE     FALSE      FALSE FALSE   FALSE 
#>  9 2019-04-19 Passover Eve Observance   FALSE    TRUE       FALSE FALSE   FALSE 
#> 10 2019-04-20 First day o… Observance   FALSE    TRUE       FALSE FALSE   FALSE 
#> # … with 148 more rows, and 2 more variables: hother <lgl>, country <fct>
…
