Most Relevant Features Using Lasso Regression — lasso_vars • lares
…
m <- lasso_vars(dft, Survived, ignore = c("Cabin"))

#> >>> Omitting transformations for 'Cabin', 'Survived'
#> >>> One Hot Encoding applied to 4 variables: 'Pclass', 'Ticket', 'Embarked', 'Sex'
#> >>> Searching for optimal lambda with CV...
#> Found best lambda: 0.017784
#> >>> Fetching most relevant variables...
#> >>> Generating plots for Survived...
#> - Plotting only the 20 most relevant features...
#> Elapsed time: 14.1s
print(m$coef)

#> # A tibble: 22 x 3
#>    names         coefficients standardized_coefficients
#>    <chr>                <dbl>                     <dbl>
#>  1 Sex_male         -0.482                     -0.230  
#>  2 Pclass_1          0.272                      0.116  
#>  3 Ticket_1601       0.577                      0.0510 
#>  4 Age              -0.00330                   -0.0479 
#>  5 Pclass_2          0.118                      0.0476 
#>  6 Ticket_OTHER      0.191                      0.0467 
#>  7 Ticket_113760     0.261                      0.0175 
#>  8 Embarked_C        0.0328                     0.0128 
#>  9 Ticket_347082    -0.125                     -0.0110 
#> 10 Fare              0.000102                   0.00507
#> # … with 12 more rows
…
