Reduce Dimensionality with PCA — reduce_pca • lares
…
    Examples

Sys.unsetenv("LARES_FONT") # Temporal
data("iris")
df <- subset(iris, select = c(-Species))
df$id <- 1:nrow(df)
reduce_pca(df, n = 3, ignore = "id")
#> $pca_explained
#> [1] 84.1715 11.7378  3.4503  0.6404
#> 
#> $pcadf
#> # A tibble: 149 × 3
#>         id    PC1     PC2
#>      <dbl>  <dbl>   <dbl>
#>  1 0       -0.628 -0.108 
#>  2 0.00671 -0.621  0.104 
#>  3 0.0134  -0.667  0.0511
#>  4 0.0201  -0.652  0.103 
#>  5 0.0268  -0.646 -0.134 
#>  6 0.0336  -0.532 -0.290 
#>  7 0.0403  -0.654 -0.0114
#>  8 0.0470  -0.623 -0.0572
#>  9 0.0537  -0.674  0.200 
#> 10 0.0604  -0.643  0.0674
#> # … with 139 more rows
…
