Games & Puzzles • lares
…
Find Highest-Scoring Words

# Find best words from your tiles
scrabble_words(
  tiles = "aeiourtn",
  force_max = 8, # Max 8 letters
  language = "en",
  scores = "en"
)

#> 115977 > 115977 > 115977 > 115977 > 293 > 293 > 293 > 293 
#> 

#> # A tibble: 293 × 3
#>    word    scores length
#>    <chr>    <int>  <int>
#>  1 outearn      9      7
#>  2 rainout      9      7
#>  3 routine      9      7
#>  4 ruinate      9      7
#>  5 taurine      9      7
#>  6 uranite      9      7
#>  7 urinate      9      7
#>  8 aunter       8      6
#>  9 auntie       8      6
#> 10 nature       8      6
#> # ℹ 283 more rows
…
