…
#>  3 3          TRUE    30.2     18    27  60      73.6  98.5     16.4  87.9  
#>  4 4          TRUE    39.9     15    26  73.6    97.3  84.4     13.6  77.7  
#>  5 5          TRUE    50        8    27  80.9   100    61.8      7.27 62.6  
#>  6 6          TRUE    60.1      4    27  84.5   100    40.7      3.64 48.5  
#>  7 7          TRUE    69.8      6    26  90     100    29.0      5.45 42.4  
#>  8 8          TRUE    79.9      2    27  91.8   100    15.0      1.82 36.2  
#>  9 9          TRUE    89.9      6    27  97.3   100     8.17     5.45 21.6  
#> 10 10         TRUE   100        3    27 100     100     0        2.73  0.751
#> 
#> $metrics
#>       AUC     ACC     PRC     TPR     TNR
#> 1 0.83147 0.30597 0.16071 0.16364 0.40506
#> 
#> $cv_metrics
#> # A tibble: 22 × 8
#>    metric     mean     sd cv_1_valid cv_2_valid cv_3_valid cv_4_valid cv_5_valid
#>    <chr>     <dbl>  <dbl>      <dbl>      <dbl>      <dbl>      <dbl>      <dbl>
#>  1 accuracy  0.830 0.0435      0.848      0.784      0.784      0.879      0.855
#>  2 auc       0.877 0.0313      0.868      0.880      0.828      0.902      0.905
#>  3 err       0.170 0.0435      0.152      0.216      0.216      0.121      0.145
#>  4 err_cou… 21.2   5.50       19         27         27         15         18    
#>  5 f0point5  0.773 0.0844      0.797      0.640      0.752      0.863      0.813
#>  6 f1        0.774 0.0538      0.753      0.710      0.748      0.819      0.839
#>  7 f2        0.780 0.0582      0.714      0.797      0.743      0.780      0.867
#>  8 lift_to…  2.41  0.510       2.98       1.64       2.31       2.76       2.34 
#>  9 logloss   0.423 0.0514      0.420      0.424      0.506      0.371      0.393
#> 10 max_per…  0.247 0.0505      0.310      0.253      0.259      0.244      0.169
#> # ℹ 12 more rows
…
